<svg width="464" height="433" viewBox="0 0 464 433" fill="none" xmlns="http://www.w3.org/2000/svg">
<rect width="464" height="433" fill="#303030"/>
<rect x="15" y="14" width="434" height="404" fill="#F2F2F2"/>
<rect x="67.5" y="51.5" width="328" height="329" stroke="black"/>
</svg>
